<svg width="32" height="32" viewBox="0 0 32 32" fill="none" xmlns="http://www.w3.org/2000/svg">
<path id="close-icon copy" fill-rule="evenodd" clip-rule="evenodd" d="M16 0C18.2083 0 20.2864 0.416663 22.2344 1.25C24.1823 2.08334 25.8802 3.22395 27.3281 4.67188C28.776 6.1198 29.9167 7.8177 30.75 9.76562C31.5833 11.7136 32 13.7917 32 16C32 18.2083 31.5833 20.2864 30.75 22.2344C29.9167 24.1823 28.776 25.8802 27.3281 27.3281C25.8802 28.776 24.1823 29.9167 22.2344 30.75C20.2864 31.5833 18.2083 32 16 32C13.7917 32 11.7136 31.5833 9.76562 30.75C7.8177 29.9167 6.1198 28.776 4.67188 27.3281C3.22395 25.8802 2.08334 24.1823 1.25 22.2344C0.416663 20.2864 0 18.2083 0 16C0 13.7917 0.416663 11.7136 1.25 9.76562C2.08334 7.8177 3.22395 6.1198 4.67188 4.67188C6.1198 3.22395 7.8177 2.08334 9.76562 1.25C11.7136 0.416663 13.7917 0 16 0ZM16 30.0312C17.9375 30.0312 19.7552 29.6615 21.4531 28.9219C23.1511 28.1823 24.6302 27.1771 25.8906 25.9062C27.151 24.6354 28.151 23.1511 28.8906 21.4531C29.6302 19.7552 30 17.9375 30 16C30 14.0625 29.6302 12.2448 28.8906 10.5469C28.151 8.84895 27.151 7.3698 25.8906 6.10938C24.6302 4.84895 23.1511 3.84896 21.4531 3.10938C19.7552 2.36979 17.9375 2 16 2C14.0625 2 12.2448 2.36979 10.5469 3.10938C8.84895 3.84896 7.3698 4.84895 6.10938 6.10938C4.84895 7.3698 3.84896 8.84895 3.10938 10.5469C2.36979 12.2448 2 14.0625 2 16C2 17.9375 2.36979 19.7552 3.10938 21.4531C3.84896 23.1511 4.84895 24.6354 6.10938 25.9062C7.3698 27.1771 8.84895 28.1823 10.5469 28.9219C12.2448 29.6615 14.0625 30.0312 16 30.0312ZM21.6562 10.3438C21.8438 10.5313 21.9375 10.7656 21.9375 11.0469C21.9375 11.3281 21.8438 11.5625 21.6562 11.75L17.4062 16L21.6562 20.25C21.8438 20.4375 21.9375 20.6719 21.9375 20.9531C21.9375 21.2344 21.8438 21.4688 21.6562 21.6562C21.4688 21.8438 21.2344 21.9375 20.9531 21.9375C20.6719 21.9375 20.4375 21.8438 20.25 21.6562L16 17.4062L11.75 21.6562C11.5625 21.8438 11.3281 21.9375 11.0469 21.9375C10.7656 21.9375 10.5313 21.8438 10.3438 21.6562C10.1562 21.4688 10.0625 21.2344 10.0625 20.9531C10.0625 20.6719 10.1562 20.4375 10.3438 20.25L14.5938 16L10.3438 11.75C10.1562 11.5625 10.0625 11.3281 10.0625 11.0469C10.0625 10.7656 10.1562 10.5313 10.3438 10.3438C10.5313 10.1562 10.7656 10.0625 11.0469 10.0625C11.3281 10.0625 11.5625 10.1562 11.75 10.3438L16 14.5938L20.25 10.3438C20.4375 10.1562 20.6719 10.0625 20.9531 10.0625C21.2344 10.0625 21.4688 10.1562 21.6562 10.3438Z" fill="#D2D2D2"/>
</svg>
